Below are all the runs with 0 gate delay and unite gate delay
I left all files with a 0 gate delay


RCA 0 GATE DELAY

    		   0 a=    x, b=    x, c=x, s=    z, cout=z
                   0 a=    x, b=    x, c=x, s=    x, cout=x
                  80 a=    0, b=    0, c=0, s=    0, cout=0
                 160 a=    2, b=    3, c=0, s=    5, cout=0
                 240 a=    1, b=    7, c=0, s=    8, cout=0
                 320 a=    8, b=    5, c=0, s=   13, cout=0
                 400 a=    6, b=    7, c=0, s=   13, cout=0
                 480 a=   11, b=    1, c=0, s=   12, cout=0
                 560 a=    0, b=   11, c=0, s=    3, cout=0
                 640 a=    5, b=  250, c=0, s=  127, cout=0
                 720 a=   33, b=   22, c=0, s=   47, cout=0
                 800 a=  133, b=    5, c=0, s=  138, cout=0
                 880 a=   27, b=   69, c=0, s=   64, cout=0
                 960 a=   53, b=   19, c=0, s=   64, cout=0
                1040 a=   43, b=   15, c=0, s=   50, cout=0
                1120 a=   24, b=    2, c=0, s=   26, cout=0
                1200 a=  111, b=   23, c=0, s=  126, cout=0
                1280 a=   44, b=   14, c=0, s=   50, cout=0
                1360 a=   50, b=   90, c=0, s=   92, cout=0
                1440 a=  100, b=  100, c=0, s=  152, cout=0
                1520 a=   15, b=  124, c=0, s=   75, cout=0
                1600 a=   93, b=   99, c=0, s=  144, cout=0
                1680 a=    2, b=   42, c=0, s=   20, cout=0
                1760 a=   11, b=   66, c=0, s=   45, cout=0
                1840 a=   17, b=   83, c=0, s=   60, cout=0
                1920 a=   10, b=   37, c=0, s=   31, cout=0
                2000 a=  200, b=   11, c=0, s=  203, cout=0
                2080 a=    2, b=  231, c=0, s=  121, cout=0
                2160 a=  244, b=   10, c=0, s=  246, cout=0
                2240 a=  240, b=   52, c=0, s=  268, cout=0
                2320 a=   11, b=   11, c=0, s=   14, cout=0
                2400 a=   22, b=  222, c=0, s=  132, cout=0
                2480 a=    3, b=  333, c=0, s=  168, cout=0
                2560 a=    1, b=    1, c=0, s=    2, cout=0
                2640 a=   99, b=  202, c=0, s=  197, cout=0
                2720 a=    2, b=    4, c=0, s=    6, cout=0
                2800 a=    5, b=    0, c=0, s=    5, cout=0
                2880 a=   33, b=    9, c=0, s=   34, cout=0
                2960 a=   62, b=    1, c=0, s=   63, cout=0
                3040 a=   12, b=    1, c=0, s=   13, cout=0
                3120 a=   20, b=   91, c=0, s=   63, cout=0
                3200 a=  211, b=    5, c=0, s=  216, cout=0
                3280 a=  152, b=    4, c=0, s=  156, cout=0
                3360 a=  192, b=    3, c=0, s=  195, cout=0
                3440 a=  102, b=    2, c=0, s=  104, cout=0
                3520 a=  107, b=    1, c=0, s=  108, cout=0
                3600 a=    2, b=  172, c=0, s=   86, cout=0
                3680 a=    6, b=    1, c=0, s=    7, cout=0
                3760 a=   41, b=   84, c=0, s=   85, cout=0
                3840 a=   17, b=   52, c=0, s=   45, cout=0
                3920 a=    1, b=  162, c=0, s=   83, cout=0
                4000 a=  253, b=    3, c=0, s=  256, cout=0

~~~~~~~~~~~~~~~~~~~~~~~~~~~~~~~~~~~~~~~~~~~~~~~~~~~~~~~~~~~~~~~~~~~~~~~~~~~~~~~~~~~~~~~~~~~~~
RCA Unite Gate Delay

		   0 a=    x, b=    x, c=x, s=    z, cout=z
                   0 a=    x, b=    x, c=x, s=    x, cout=x
                  80 a=    0, b=    0, c=0, s=    x, cout=x
                  82 a=    0, b=    0, c=0, s=    X, cout=0
                  83 a=    0, b=    0, c=0, s=    0, cout=0
                 160 a=    2, b=    3, c=0, s=    0, cout=0
                 162 a=    2, b=    3, c=0, s=    1, cout=0
                 163 a=    2, b=    3, c=0, s=    5, cout=0
                 240 a=    1, b=    7, c=0, s=    5, cout=0
                 242 a=    1, b=    7, c=0, s=    2, cout=0
                 243 a=    1, b=    7, c=0, s=   12, cout=0
                 245 a=    1, b=    7, c=0, s=    0, cout=0
                 247 a=    1, b=    7, c=0, s=    8, cout=0
                 320 a=    8, b=    5, c=0, s=    8, cout=0
                 322 a=    8, b=    5, c=0, s=    3, cout=0
                 323 a=    8, b=    5, c=0, s=   21, cout=0
                 325 a=    8, b=    5, c=0, s=   29, cout=0
                 327 a=    8, b=    5, c=0, s=   13, cout=0
                 400 a=    6, b=    7, c=0, s=   13, cout=0
                 402 a=    6, b=    7, c=0, s=    1, cout=0
                 403 a=    6, b=    7, c=0, s=   13, cout=0
                 480 a=   11, b=    1, c=0, s=   13, cout=0
                 482 a=   11, b=    1, c=0, s=    6, cout=0
                 483 a=   11, b=    1, c=0, s=   24, cout=0
                 485 a=   11, b=    1, c=0, s=   12, cout=0
                 560 a=    0, b=   11, c=0, s=   12, cout=0
                 562 a=    0, b=   11, c=0, s=    5, cout=0
                 563 a=    0, b=   11, c=0, s=    7, cout=0
                 565 a=    0, b=   11, c=0, s=    3, cout=0
                 640 a=    5, b=  250, c=0, s=    3, cout=0
                 642 a=    5, b=  250, c=0, s=  127, cout=0
                 720 a=   33, b=   22, c=0, s=  127, cout=0
                 722 a=   33, b=   22, c=0, s=   47, cout=0
                 800 a=  133, b=    5, c=0, s=   47, cout=0
                 802 a=  133, b=    5, c=0, s=  128, cout=0
                 803 a=  133, b=    5, c=0, s=  138, cout=0
                 880 a=   27, b=   69, c=0, s=  138, cout=0
                 882 a=   27, b=   69, c=0, s=   52, cout=0
                 883 a=   27, b=   69, c=0, s=   40, cout=0
                 885 a=   27, b=   69, c=0, s=   16, cout=0
                 887 a=   27, b=   69, c=0, s=   96, cout=0
                 889 a=   27, b=   69, c=0, s=    0, cout=0
                 891 a=   27, b=   69, c=0, s=   64, cout=0
                 960 a=   53, b=   19, c=0, s=   64, cout=0
                1040 a=   43, b=   15, c=0, s=   64, cout=0
                1042 a=   43, b=   15, c=0, s=   82, cout=0
                1043 a=   43, b=   15, c=0, s=  114, cout=0
                1045 a=   43, b=   15, c=0, s=   50, cout=0
                1120 a=   24, b=    2, c=0, s=   50, cout=0
                1122 a=   24, b=    2, c=0, s=    4, cout=0
                1123 a=   24, b=    2, c=0, s=   46, cout=0
                1125 a=   24, b=    2, c=0, s=   58, cout=0
                1127 a=   24, b=    2, c=0, s=   26, cout=0
                1200 a=  111, b=   23, c=0, s=   26, cout=0
                1202 a=  111, b=   23, c=0, s=   96, cout=0
                1203 a=  111, b=   23, c=0, s=  126, cout=0
                1280 a=   44, b=   14, c=0, s=  126, cout=0
                1282 a=   44, b=   14, c=0, s=   52, cout=0
                1283 a=   44, b=   14, c=0, s=   54, cout=0
                1285 a=   44, b=   14, c=0, s=   50, cout=0
                1360 a=   50, b=   90, c=0, s=   50, cout=0
                1362 a=   50, b=   90, c=0, s=    0, cout=0
                1363 a=   50, b=   90, c=0, s=  108, cout=0
                1365 a=   50, b=   90, c=0, s=  124, cout=0
                1367 a=   50, b=   90, c=0, s=   92, cout=0
                1440 a=  100, b=  100, c=0, s=   92, cout=0
                1442 a=  100, b=  100, c=0, s=   20, cout=0
                1443 a=  100, b=  100, c=0, s=  152, cout=0
                1520 a=   15, b=  124, c=0, s=  152, cout=0
                1522 a=   15, b=  124, c=0, s=  251, cout=0
                1523 a=   15, b=  124, c=0, s=   43, cout=0
                1525 a=   15, b=  124, c=0, s=   11, cout=0
                1527 a=   15, b=  124, c=0, s=   75, cout=0
                1600 a=   93, b=   99, c=0, s=   75, cout=0
                1602 a=   93, b=   99, c=0, s=   22, cout=0
                1603 a=   93, b=   99, c=0, s=  156, cout=0
                1605 a=   93, b=   99, c=0, s=  136, cout=0
                1607 a=   93, b=   99, c=0, s=  128, cout=0
                1609 a=   93, b=   99, c=0, s=  144, cout=0
                1680 a=    2, b=   42, c=0, s=  144, cout=0
                1682 a=    2, b=   42, c=0, s=  238, cout=0
                1683 a=    2, b=   42, c=0, s=   52, cout=0
                1685 a=    2, b=   42, c=0, s=   20, cout=0
                1760 a=   11, b=   66, c=0, s=   20, cout=0
                1762 a=   11, b=   66, c=0, s=   45, cout=0
                1840 a=   17, b=   83, c=0, s=   45, cout=0
                1842 a=   17, b=   83, c=0, s=   62, cout=0
                1843 a=   17, b=   83, c=0, s=   56, cout=0
                1845 a=   17, b=   83, c=0, s=   60, cout=0
                1920 a=   10, b=   37, c=0, s=   60, cout=0
                1922 a=   10, b=   37, c=0, s=   25, cout=0
                1923 a=   10, b=   37, c=0, s=   19, cout=0
                1925 a=   10, b=   37, c=0, s=    7, cout=0
                1927 a=   10, b=   37, c=0, s=   47, cout=0
                1929 a=   10, b=   37, c=0, s=   63, cout=0
                1931 a=   10, b=   37, c=0, s=   31, cout=0
                2000 a=  200, b=   11, c=0, s=   31, cout=0
                2002 a=  200, b=   11, c=0, s=  203, cout=0
                2080 a=    2, b=  231, c=0, s=  203, cout=0
                2082 a=    2, b=  231, c=0, s=  117, cout=0
                2083 a=    2, b=  231, c=0, s=  113, cout=0
                2085 a=    2, b=  231, c=0, s=  121, cout=0
                2160 a=  244, b=   10, c=0, s=  121, cout=0
                2162 a=  244, b=   10, c=0, s=  250, cout=0
                2163 a=  244, b=   10, c=0, s=  254, cout=0
                2165 a=  244, b=   10, c=0, s=  246, cout=0
                2240 a=  240, b=   52, c=0, s=  246, cout=0
                2242 a=  240, b=   52, c=0, s=  236, cout=0
                2243 a=  240, b=   52, c=0, s=  204, cout=0
                2245 a=  240, b=   52, c=0, s=  140, cout=0
                2247 a=  240, b=   52, c=0, s=   12, cout=0
                2249 a=  240, b=   52, c=0, s=  268, cout=0
                2320 a=   11, b=   11, c=0, s=  268, cout=0
                2322 a=   11, b=   11, c=0, s=  488, cout=0
                2323 a=   11, b=   11, c=0, s=   14, cout=0
                2400 a=   22, b=  222, c=0, s=   14, cout=0
                2402 a=   22, b=  222, c=0, s=  126, cout=0
                2403 a=   22, b=  222, c=0, s=  116, cout=0
                2405 a=   22, b=  222, c=0, s=  100, cout=0
                2407 a=   22, b=  222, c=0, s=   68, cout=0
                2409 a=   22, b=  222, c=0, s=    4, cout=0
                2411 a=   22, b=  222, c=0, s=  132, cout=0
                2480 a=    3, b=  333, c=0, s=  132, cout=0
                2482 a=    3, b=  333, c=0, s=   90, cout=0
                2483 a=    3, b=  333, c=0, s=  492, cout=0
                2485 a=    3, b=  333, c=0, s=  160, cout=0
                2487 a=    3, b=  333, c=0, s=  168, cout=0
                2560 a=    1, b=    1, c=0, s=  168, cout=0
                2562 a=    1, b=    1, c=0, s=   14, cout=0
                2563 a=    1, b=    1, c=0, s=    2, cout=0
                2640 a=   99, b=  202, c=0, s=    2, cout=0
                2642 a=   99, b=  202, c=0, s=    3, cout=0
                2643 a=   99, b=  202, c=0, s=  197, cout=0
                2720 a=    2, b=    4, c=0, s=  197, cout=0
                2722 a=    2, b=    4, c=0, s=  194, cout=0
                2723 a=    2, b=    4, c=0, s=   14, cout=0
                2725 a=    2, b=    4, c=0, s=    6, cout=0
                2800 a=    5, b=    0, c=0, s=    6, cout=0
                2802 a=    5, b=    0, c=0, s=    5, cout=0
                2880 a=   33, b=    9, c=0, s=    5, cout=0
                2882 a=   33, b=    9, c=0, s=   32, cout=0
                2883 a=   33, b=    9, c=0, s=   34, cout=0
                2960 a=   62, b=    1, c=0, s=   34, cout=0
                2962 a=   62, b=    1, c=0, s=   61, cout=0
                2963 a=   62, b=    1, c=0, s=   59, cout=0
                2965 a=   62, b=    1, c=0, s=   55, cout=0
                2967 a=   62, b=    1, c=0, s=   47, cout=0
                2969 a=   62, b=    1, c=0, s=   31, cout=0
                2971 a=   62, b=    1, c=0, s=  127, cout=0
                2973 a=   62, b=    1, c=0, s=   63, cout=0
                3040 a=   12, b=    1, c=0, s=   63, cout=0
                3042 a=   12, b=    1, c=0, s=   13, cout=0
                3120 a=   20, b=   91, c=0, s=   13, cout=0
                3122 a=   20, b=   91, c=0, s=   63, cout=0
                3200 a=  211, b=    5, c=0, s=   63, cout=0
                3202 a=  211, b=    5, c=0, s=  214, cout=0
                3203 a=  211, b=    5, c=0, s=  212, cout=0
                3205 a=  211, b=    5, c=0, s=  208, cout=0
                3207 a=  211, b=    5, c=0, s=  216, cout=0
                3280 a=  152, b=    4, c=0, s=  216, cout=0
                3282 a=  152, b=    4, c=0, s=  146, cout=0
                3283 a=  152, b=    4, c=0, s=  132, cout=0
                3285 a=  152, b=    4, c=0, s=  172, cout=0
                3287 a=  152, b=    4, c=0, s=  188, cout=0
                3289 a=  152, b=    4, c=0, s=  156, cout=0
                3360 a=  192, b=    3, c=0, s=  156, cout=0
                3362 a=  192, b=    3, c=0, s=  195, cout=0
                3440 a=  102, b=    2, c=0, s=  195, cout=0
                3442 a=  102, b=    2, c=0, s=  100, cout=0
                3443 a=  102, b=    2, c=0, s=   96, cout=0
                3445 a=  102, b=    2, c=0, s=  104, cout=0
                3520 a=  107, b=    1, c=0, s=  104, cout=0
                3522 a=  107, b=    1, c=0, s=  102, cout=0
                3523 a=  107, b=    1, c=0, s=  120, cout=0
                3525 a=  107, b=    1, c=0, s=  108, cout=0
                3600 a=    2, b=  172, c=0, s=  108, cout=0
                3602 a=    2, b=  172, c=0, s=   80, cout=0
                3603 a=    2, b=  172, c=0, s=   90, cout=0
                3605 a=    2, b=  172, c=0, s=   94, cout=0
                3607 a=    2, b=  172, c=0, s=   86, cout=0
                3680 a=    6, b=    1, c=0, s=   86, cout=0
                3682 a=    6, b=    1, c=0, s=    7, cout=0
                3760 a=   41, b=   84, c=0, s=    7, cout=0
                3762 a=   41, b=   84, c=0, s=    5, cout=0
                3763 a=   41, b=   84, c=0, s=   85, cout=0
                3840 a=   17, b=   52, c=0, s=   85, cout=0
                3842 a=   17, b=   52, c=0, s=   93, cout=0
                3843 a=   17, b=   52, c=0, s=   45, cout=0
                3920 a=    1, b=  162, c=0, s=   45, cout=0
                3922 a=    1, b=  162, c=0, s=  115, cout=0
                3923 a=    1, b=  162, c=0, s=   83, cout=0
                4000 a=  253, b=    3, c=0, s=   83, cout=0
                4002 a=  253, b=    3, c=0, s=  254, cout=0
                4003 a=  253, b=    3, c=0, s=  252, cout=0
                4005 a=  253, b=    3, c=0, s=  248, cout=0
                4007 a=  253, b=    3, c=0, s=  240, cout=0
                4009 a=  253, b=    3, c=0, s=  224, cout=0
                4011 a=  253, b=    3, c=0, s=  192, cout=0
                4013 a=  253, b=    3, c=0, s=  128, cout=0
                4015 a=  253, b=    3, c=0, s=    0, cout=0
                4017 a=  253, b=    3, c=0, s=  256, cout=0
                4080 a=0000000011111101, b=0000000000000011, c=0,s=0000000100000000, cout=0
LOTS OF GLITCHES UNDER UNIT GATE DELAY FOR RCA
~~~~~~~~~~~~~~~~~~~~~~~~~~~~~~~~~~~~~~~~~~~~~~~~~~~~~~~~~~~~~~~~~~~~~~~~~~~~~~~~~~~~~~~~~~~~~~~~~~~~~~~
4 by 4 bit array mult no delay

		   0 a= x, b= x, p=  z
                   0 a= x, b= x, p=  x
                  80 a= 0, b= 0, p=  0
                 160 a= 2, b= 3, p=  6
                 240 a= 1, b= 7, p=  7
                 320 a= 8, b= 5, p= 40
                 400 a= 6, b= 7, p= 42
                 480 a=11, b= 1, p= 11
                 560 a= 0, b=11, p=  0
                 640 a= 5, b=10, p= 50
                 720 a= 1, b= 6, p=  6
                 800 a= 5, b= 5, p= 25
                 880 a=11, b= 5, p= 55
                 960 a= 5, b= 3, p= 15
                1040 a=11, b=15, p=165
                1120 a= 8, b= 2, p= 16
                1200 a=15, b= 7, p=105
                1280 a=12, b=14, p=168
                1360 a= 2, b=10, p= 20
                1440 a= 4, b= 4, p= 16
                1520 a=15, b=12, p=180
                1600 a=13, b= 3, p= 39
                1680 a= 2, b=10, p= 20
                1760 a=11, b= 2, p= 22
                1840 a= 1, b= 3, p=  3
                1920 a=10, b= 5, p= 50
                2000 a= 8, b=11, p= 88
                2080 a= 2, b= 7, p= 14
                2160 a= 4, b=10, p= 40
                2240 a= 0, b= 4, p=  0
                2320 a=11, b=11, p=121
                2400 a= 6, b=14, p= 84
                2480 a= 3, b=13, p= 39
                2560 a= 1, b= 1, p=  1
                2640 a= 3, b=10, p= 30
                2720 a= 2, b= 4, p=  8
                2800 a= 5, b= 0, p=  0
                2880 a= 1, b= 9, p=  9
                2960 a=14, b= 1, p= 14
                3040 a=12, b= 1, p= 12
                3120 a= 4, b=11, p= 44
                3200 a= 3, b= 5, p= 15
                3280 a= 8, b= 4, p= 32
                3360 a= 0, b= 3, p=  0
                3440 a= 6, b= 2, p= 12
                3520 a=11, b= 1, p= 11
                3600 a= 2, b=12, p= 24
                3680 a= 6, b= 1, p=  6
                3760 a= 9, b= 4, p= 36
                3840 a= 1, b= 4, p=  4
                3920 a= 1, b= 2, p=  2
                4000 a=13, b= 3, p= 39
                4020 a=1101, b=0011, p=00100111
~~~~~~~~~~~~~~~~~~~~~~~~~~~~~~~~~~~~~~~~~~~~~~~~~~~~~~~~~~~~~~~~~~
4x4 MULT with unit gate delay
                   0 a= x, b= x, p=  z
                   0 a= x, b= x, p=  x
                  80 a= 0, b= 0, p=  x
                  81 a= 0, b= 0, p=  X
                  83 a= 0, b= 0, p=  X
                  85 a= 0, b= 0, p=  X
                  86 a= 0, b= 0, p=  X
                  87 a= 0, b= 0, p=  0
                 160 a= 2, b= 3, p=  0
                 161 a= 2, b= 3, p=  2
                 162 a= 2, b= 3, p=  6
                 240 a= 1, b= 7, p=  6
                 241 a= 1, b= 7, p=  7
                 320 a= 8, b= 5, p=  7
                 321 a= 8, b= 5, p= 44
                 322 a= 8, b= 5, p= 40
                 400 a= 6, b= 7, p= 40
                 401 a= 6, b= 7, p=  6
                 402 a= 6, b= 7, p= 26
                 403 a= 6, b= 7, p= 18
                 404 a= 6, b= 7, p= 26
                 405 a= 6, b= 7, p= 10
                 407 a= 6, b= 7, p= 42
                 480 a=11, b= 1, p= 42
                 481 a=11, b= 1, p= 39
                 482 a=11, b= 1, p= 43
                 483 a=11, b= 1, p= 59
                 485 a=11, b= 1, p= 11
                 560 a= 0, b=11, p= 11
                 561 a= 0, b=11, p=  0
                 640 a= 5, b=10, p=  0
                 641 a= 5, b=10, p=  2
                 642 a= 5, b=10, p= 42
                 643 a= 5, b=10, p= 34
                 645 a= 5, b=10, p= 50
                 720 a= 1, b= 6, p= 50
                 722 a= 1, b= 6, p= 30
                 723 a= 1, b= 6, p= 22
                 724 a= 1, b= 6, p=  6
                 800 a= 5, b= 5, p=  6
                 801 a= 5, b= 5, p=  1
                 802 a= 5, b= 5, p= 17
                 803 a= 5, b= 5, p= 25
                 880 a=11, b= 5, p= 25
                 881 a=11, b= 5, p= 55
                 960 a= 5, b= 3, p= 55
                 961 a= 5, b= 3, p= 27
                 962 a= 5, b= 3, p=  7
                 964 a= 5, b= 3, p= 31
                 966 a= 5, b= 3, p= 15
                1040 a=11, b=15, p= 15
                1041 a=11, b=15, p=113
                1042 a=11, b=15, p=105
                1043 a=11, b=15, p=109
                1044 a=11, b=15, p= 77
                1045 a=11, b=15, p=117
                1046 a=11, b=15, p= 37
                1047 a=11, b=15, p=133
                1048 a=11, b=15, p=165
                1120 a= 8, b= 2, p=165
                1121 a= 8, b= 2, p=204
                1122 a= 8, b= 2, p= 92
                1123 a= 8, b= 2, p=104
                1124 a= 8, b= 2, p= 72
                1125 a= 8, b= 2, p= 48
                1127 a= 8, b= 2, p= 16
                1200 a=15, b= 7, p= 16
                1201 a=15, b= 7, p= 61
                1202 a=15, b= 7, p= 37
                1203 a=15, b= 7, p= 57
                1204 a=15, b= 7, p=  9
                1205 a=15, b= 7, p= 25
                1206 a=15, b= 7, p= 89
                1207 a=15, b= 7, p= 73
                1209 a=15, b= 7, p=105
                1280 a=12, b=14, p=105
                1281 a=12, b=14, p= 36
                1282 a=12, b=14, p=132
                1283 a=12, b=14, p=192
                1285 a=12, b=14, p=216
                1287 a=12, b=14, p=232
                1289 a=12, b=14, p=168
                1290 a=12, b=14, p=232
                1291 a=12, b=14, p= 40
                1292 a=12, b=14, p=168
                1360 a= 2, b=10, p=168
                1361 a= 2, b=10, p=216
                1362 a= 2, b=10, p=100
                1363 a= 2, b=10, p= 84
                1364 a= 2, b=10, p= 20
                1440 a= 4, b= 4, p= 20
                1442 a= 4, b= 4, p=  0
                1443 a= 4, b= 4, p= 16
                1444 a= 4, b= 4, p= 48
                1445 a= 4, b= 4, p= 16
                1520 a=15, b=12, p= 16
                1521 a=15, b=12, p=112
                1522 a=15, b=12, p= 84
                1523 a=15, b=12, p= 68
                1524 a=15, b=12, p=  4
                1525 a=15, b=12, p=148
                1526 a=15, b=12, p=212
                1527 a=15, b=12, p=244
                1529 a=15, b=12, p=180
                1600 a=13, b= 3, p=180
                1601 a=13, b= 3, p=203
                1602 a=13, b= 3, p=119
                1603 a=13, b= 3, p= 63
                1604 a=13, b= 3, p=  7
                1605 a=13, b= 3, p= 55
                1606 a=13, b= 3, p= 39
                1680 a= 2, b=10, p= 39
                1681 a= 2, b=10, p= 56
                1682 a= 2, b=10, p= 36
                1683 a= 2, b=10, p= 20
                1760 a=11, b= 2, p= 20
                1761 a=11, b= 2, p=  6
                1763 a=11, b= 2, p= 54
                1765 a=11, b= 2, p= 22
                1840 a= 1, b= 3, p= 22
                1841 a= 1, b= 3, p=  7
                1842 a= 1, b= 3, p=  3
                1920 a=10, b= 5, p=  3
                1921 a=10, b= 5, p= 42
                1923 a=10, b= 5, p= 34
                1924 a=10, b= 5, p= 50
                2000 a= 8, b=11, p= 50
                2001 a= 8, b=11, p= 64
                2003 a= 8, b=11, p=104
                2004 a= 8, b=11, p=120
                2006 a= 8, b=11, p= 88
                2080 a= 2, b= 7, p= 88
                2081 a= 2, b= 7, p=  2
                2082 a= 2, b= 7, p=  6
                2083 a= 2, b= 7, p= 14
                2160 a= 4, b=10, p= 14
                2161 a= 4, b=10, p= 12
                2162 a= 4, b=10, p= 32
                2163 a= 4, b=10, p= 40
                2164 a= 4, b=10, p= 56
                2165 a= 4, b=10, p= 40
                2240 a= 0, b= 4, p= 40
                2242 a= 0, b= 4, p=  0
                2320 a=11, b=11, p=  0
                2321 a=11, b=11, p= 89
                2322 a=11, b=11, p= 93
                2323 a=11, b=11, p= 65
                2324 a=11, b=11, p= 81
                2325 a=11, b=11, p=113
                2326 a=11, b=11, p=121
                2327 a=11, b=11, p=105
                2328 a=11, b=11, p= 89
                2330 a=11, b=11, p= 57
                2331 a=11, b=11, p=185
                2332 a=11, b=11, p=249
                2333 a=11, b=11, p=121
                2400 a= 6, b=14, p=121
                2401 a= 6, b=14, p= 32
                2402 a= 6, b=14, p= 24
                2403 a= 6, b=14, p= 92
                2406 a= 6, b=14, p= 84
                2408 a= 6, b=14, p=116
                2409 a= 6, b=14, p= 52
                2410 a= 6, b=14, p= 20
                2411 a= 6, b=14, p= 84
                2480 a= 3, b=13, p= 84
                2481 a= 3, b=13, p= 87
                2482 a= 3, b=13, p=111
                2483 a= 3, b=13, p= 39
                2484 a= 3, b=13, p= 55
                2485 a= 3, b=13, p=  7
                2486 a= 3, b=13, p=103
                2487 a= 3, b=13, p= 39
                2560 a= 1, b= 1, p= 39
                2561 a= 1, b= 1, p= 37
                2562 a= 1, b= 1, p= 33
                2563 a= 1, b= 1, p= 17
                2565 a= 1, b= 1, p=  1
                2640 a= 3, b=10, p=  1
                2641 a= 3, b=10, p=  2
                2642 a= 3, b=10, p=  6
                2643 a= 3, b=10, p= 30
                2720 a= 2, b= 4, p= 30
                2721 a= 2, b= 4, p= 28
                2722 a= 2, b= 4, p= 24
                2723 a= 2, b= 4, p=  8
                2800 a= 5, b= 0, p=  8
                2803 a= 5, b= 0, p=  0
                2880 a= 1, b= 9, p=  0
                2881 a= 1, b= 9, p=  1
                2883 a= 1, b= 9, p=  9
                2960 a=14, b= 1, p=  9
                2961 a=14, b= 1, p=  6
                2962 a=14, b= 1, p= 22
                2963 a=14, b= 1, p= 30
                2964 a=14, b= 1, p= 14
                3040 a=12, b= 1, p= 14
                3041 a=12, b= 1, p= 12
                3120 a= 4, b=11, p= 12
                3121 a= 4, b=11, p=  4
                3122 a= 4, b=11, p= 44
                3200 a= 3, b= 5, p= 44
                3201 a= 3, b= 5, p= 43
                3202 a= 3, b= 5, p=  7
                3203 a= 3, b= 5, p= 15
                3280 a= 8, b= 4, p= 15
                3281 a= 8, b= 4, p= 44
                3282 a= 8, b= 4, p= 40
                3283 a= 8, b= 4, p= 32
                3360 a= 0, b= 3, p= 32
                3361 a= 0, b= 3, p=  0
                3440 a= 6, b= 2, p=  0
                3442 a= 6, b= 2, p= 12
                3520 a=11, b= 1, p= 12
                3521 a=11, b= 1, p=  7
                3522 a=11, b= 1, p= 27
                3523 a=11, b= 1, p= 11
                3600 a= 2, b=12, p= 11
                3601 a= 2, b=12, p=  0
                3603 a= 2, b=12, p= 24
                3680 a= 6, b= 1, p= 24
                3681 a= 6, b= 1, p= 30
                3683 a= 6, b= 1, p=  6
                3760 a= 9, b= 4, p=  6
                3761 a= 9, b= 4, p= 32
                3762 a= 9, b= 4, p= 36
                3840 a= 1, b= 4, p= 36
                3841 a= 1, b= 4, p=  4
                3920 a= 1, b= 2, p=  4
                3921 a= 1, b= 2, p=  6
                3922 a= 1, b= 2, p=  2
                4000 a=13, b= 3, p=  2
                4001 a=13, b= 3, p= 31
                4002 a=13, b= 3, p= 23
                4003 a=13, b= 3, p=  7
                4005 a=13, b= 3, p= 39
                4020 a=1101, b=0011, p=00100111
~~~~~~~~~~~~~~~~~~~~~~~~~~~~~~~~~~~~~~~~~~~~~~~~~~~~~~~~~~~~~~~~~~~~~~~~~~~~~~~~~~`
CLA with 0 gate delay
                   0 a=    x, b=    x, c=x, s=    z, cout=z
                   0 a=    x, b=    x, c=x, s=    x, cout=x
                  80 a=    0, b=    0, c=0, s=    0, cout=0
                 160 a=    4, b=    1, c=0, s=    5, cout=0
                 240 a=    7, b=    2, c=0, s=    9, cout=0
                 320 a=    1, b=    7, c=0, s=    8, cout=0
                 400 a=    8, b=    5, c=0, s=   13, cout=0
                 480 a=    6, b=    7, c=0, s=   13, cout=0
                 560 a=   11, b=    1, c=0, s=   12, cout=0
                 640 a=    0, b=   11, c=0, s=   11, cout=0
                 720 a=    5, b=  250, c=0, s=  255, cout=0
                 800 a=   33, b=   22, c=0, s=   55, cout=0
                 880 a=  133, b=    5, c=0, s=  138, cout=0
                 960 a=   27, b=   69, c=0, s=  352, cout=0
                1040 a=   53, b=   19, c=0, s=   72, cout=0
                1120 a=   43, b=   15, c=0, s=   58, cout=0
                1200 a=   24, b=    2, c=0, s=   26, cout=0
                1280 a=  111, b=   23, c=0, s=  390, cout=0
                1360 a=   44, b=   14, c=0, s=   58, cout=0
                1440 a=   50, b=   90, c=0, s=  140, cout=0
                1520 a=  100, b=  100, c=0, s=  200, cout=0
                1600 a=   15, b=  124, c=0, s=  395, cout=0
                1680 a=   93, b=   99, c=0, s=  448, cout=0
                1760 a=    2, b=   42, c=0, s=   44, cout=0
                1840 a=   11, b=   66, c=0, s=   77, cout=0
                1920 a=   17, b=   83, c=0, s=  100, cout=0
                2000 a=   10, b=   37, c=0, s=   47, cout=0
                2080 a=  200, b=   11, c=0, s=  211, cout=0
                2160 a=    2, b=  231, c=0, s=  233, cout=0
                2240 a=  244, b=   10, c=0, s=  254, cout=0
                2320 a=  240, b=   52, c=0, s=  292, cout=0
                2400 a=   11, b=   11, c=0, s=   22, cout=0
                2480 a=   22, b=  222, c=0, s=  244, cout=0
                2560 a=    3, b=  333, c=0, s=  336, cout=0
                2640 a=    1, b=    1, c=0, s=    2, cout=0
                2720 a=   99, b=  202, c=0, s=  301, cout=0
                2800 a=    2, b=    4, c=0, s=    6, cout=0
                2880 a=    5, b=    0, c=0, s=    5, cout=0
                2960 a=   33, b=    9, c=0, s=   42, cout=0
                3040 a=   62, b=    1, c=0, s=   63, cout=0
                3120 a=   12, b=    1, c=0, s=   13, cout=0
                3200 a=   20, b=   91, c=0, s=  111, cout=0
                3280 a=  211, b=    5, c=0, s=  216, cout=0
                3360 a=  152, b=    4, c=0, s=  156, cout=0
                3440 a=  192, b=    3, c=0, s=  195, cout=0
                3520 a=  102, b=    2, c=0, s=  104, cout=0
                3600 a=  107, b=    1, c=0, s=  108, cout=0
                3680 a=    2, b=  172, c=0, s=  174, cout=0
                3760 a=    6, b=    1, c=0, s=    7, cout=0
                3840 a=   41, b=   84, c=0, s=  125, cout=0
                3860 a=   66, b=    2, c=0, s=   68, cout=0
                3880 a=  252, b=    6, c=0, s=  258, cout=0
                3900 a=  300, b=   80, c=0, s=  380, cout=0
                3920 a=0000000100101100, b=0000000001010000, c=0,s=0000000101111100, cout=0
~~~~~~~~~~~~~~~~~~~~~~~~~~~~~~~~~~~~~~~~~~~~~~~~~~~~~~~~~~~~~~~~~~~~~~~~~~~~~~~~~~~~~~~~~~~~~~~~~~~~~~~~~~~~~~~~

CLA UNIT GATE DELAY~~~~~~~~~~~~~~~~~~~
                   0 a=    x, b=    x, c=x, s=    z, cout=z
                   0 a=    x, b=    x, c=x, s=    x, cout=x
                  80 a=    0, b=    0, c=0, s=    x, cout=x
                  81 a=    0, b=    0, c=0, s=    X, cout=0
                  82 a=    0, b=    0, c=0, s=    0, cout=0
                 160 a=    4, b=    1, c=0, s=    0, cout=0
                 161 a=    4, b=    1, c=0, s=    5, cout=0
                 240 a=    7, b=    2, c=0, s=    5, cout=0
                 242 a=    7, b=    2, c=0, s=    9, cout=0
                 320 a=    1, b=    7, c=0, s=    9, cout=0
                 321 a=    1, b=    7, c=0, s=   10, cout=0
                 322 a=    1, b=    7, c=0, s=    8, cout=0
                 400 a=    8, b=    5, c=0, s=    8, cout=0
                 401 a=    8, b=    5, c=0, s=    3, cout=0
                 402 a=    8, b=    5, c=0, s=   13, cout=0
                 480 a=    6, b=    7, c=0, s=   13, cout=0
                 481 a=    6, b=    7, c=0, s=    1, cout=0
                 482 a=    6, b=    7, c=0, s=   13, cout=0
                 560 a=   11, b=    1, c=0, s=   13, cout=0
                 561 a=   11, b=    1, c=0, s=    6, cout=0
                 562 a=   11, b=    1, c=0, s=   12, cout=0
                 640 a=    0, b=   11, c=0, s=   12, cout=0
                 641 a=    0, b=   11, c=0, s=   13, cout=0
                 642 a=    0, b=   11, c=0, s=   11, cout=0
                 720 a=    5, b=  250, c=0, s=   11, cout=0
                 721 a=    5, b=  250, c=0, s=  255, cout=0
                 800 a=   33, b=   22, c=0, s=  255, cout=0
                 801 a=   33, b=   22, c=0, s=   55, cout=0
                 880 a=  133, b=    5, c=0, s=   55, cout=0
                 881 a=  133, b=    5, c=0, s=  128, cout=0
                 882 a=  133, b=    5, c=0, s=  138, cout=0
                 960 a=   27, b=   69, c=0, s=  138, cout=0
                 961 a=   27, b=   69, c=0, s=   84, cout=0
                 962 a=   27, b=   69, c=0, s=  352, cout=0
                1040 a=   53, b=   19, c=0, s=  352, cout=0
                1041 a=   53, b=   19, c=0, s=  280, cout=0
                1042 a=   53, b=   19, c=0, s=   72, cout=0
                1120 a=   43, b=   15, c=0, s=   72, cout=0
                1121 a=   43, b=   15, c=0, s=   74, cout=0
                1122 a=   43, b=   15, c=0, s=   58, cout=0
                1200 a=   24, b=    2, c=0, s=   58, cout=0
                1201 a=   24, b=    2, c=0, s=    4, cout=0
                1202 a=   24, b=    2, c=0, s=   26, cout=0
                1280 a=  111, b=   23, c=0, s=   26, cout=0
                1281 a=  111, b=   23, c=0, s=  120, cout=0
                1282 a=  111, b=   23, c=0, s=  390, cout=0
                1360 a=   44, b=   14, c=0, s=  390, cout=0
                1361 a=   44, b=   14, c=0, s=  476, cout=0
                1362 a=   44, b=   14, c=0, s=   58, cout=0
                1440 a=   50, b=   90, c=0, s=   58, cout=0
                1441 a=   50, b=   90, c=0, s=  112, cout=0
                1442 a=   50, b=   90, c=0, s=  140, cout=0
                1520 a=  100, b=  100, c=0, s=  140, cout=0
                1521 a=  100, b=  100, c=0, s=  228, cout=0
                1522 a=  100, b=  100, c=0, s=  200, cout=0
                1600 a=   15, b=  124, c=0, s=  200, cout=0
                1601 a=   15, b=  124, c=0, s=  187, cout=0
                1602 a=   15, b=  124, c=0, s=  395, cout=0
                1680 a=   93, b=   99, c=0, s=  395, cout=0
                1681 a=   93, b=   99, c=0, s=  454, cout=0
                1682 a=   93, b=   99, c=0, s=  448, cout=0
                1760 a=    2, b=   42, c=0, s=  448, cout=0
                1761 a=    2, b=   42, c=0, s=  470, cout=0
                1762 a=    2, b=   42, c=0, s=   44, cout=0
                1840 a=   11, b=   66, c=0, s=   44, cout=0
                1841 a=   11, b=   66, c=0, s=   77, cout=0
                1920 a=   17, b=   83, c=0, s=   77, cout=0
                1921 a=   17, b=   83, c=0, s=   70, cout=0
                1922 a=   17, b=   83, c=0, s=  100, cout=0
                2000 a=   10, b=   37, c=0, s=  100, cout=0
                2001 a=   10, b=   37, c=0, s=    9, cout=0
                2002 a=   10, b=   37, c=0, s=   47, cout=0
                2080 a=  200, b=   11, c=0, s=   47, cout=0
                2081 a=  200, b=   11, c=0, s=  195, cout=0
                2082 a=  200, b=   11, c=0, s=  211, cout=0
                2160 a=    2, b=  231, c=0, s=  211, cout=0
                2161 a=    2, b=  231, c=0, s=  245, cout=0
                2162 a=    2, b=  231, c=0, s=  233, cout=0
                2240 a=  244, b=   10, c=0, s=  233, cout=0
                2241 a=  244, b=   10, c=0, s=  242, cout=0
                2242 a=  244, b=   10, c=0, s=  254, cout=0
                2320 a=  240, b=   52, c=0, s=  254, cout=0
                2321 a=  240, b=   52, c=0, s=  196, cout=0
                2322 a=  240, b=   52, c=0, s=  292, cout=0
                2400 a=   11, b=   11, c=0, s=  292, cout=0
                2401 a=   11, b=   11, c=0, s=  480, cout=0
                2402 a=   11, b=   11, c=0, s=   22, cout=0
                2480 a=   22, b=  222, c=0, s=   22, cout=0
                2481 a=   22, b=  222, c=0, s=  222, cout=0
                2482 a=   22, b=  222, c=0, s=  244, cout=0
                2560 a=    3, b=  333, c=0, s=  244, cout=0
                2561 a=    3, b=  333, c=0, s=  370, cout=0
                2562 a=    3, b=  333, c=0, s=  336, cout=0
                2640 a=    1, b=    1, c=0, s=  336, cout=0
                2641 a=    1, b=    1, c=0, s=   30, cout=0
                2642 a=    1, b=    1, c=0, s=    2, cout=0
                2720 a=   99, b=  202, c=0, s=    2, cout=0
                2721 a=   99, b=  202, c=0, s=  171, cout=0
                2722 a=   99, b=  202, c=0, s=  301, cout=0
                2800 a=    2, b=    4, c=0, s=  301, cout=0
                2801 a=    2, b=    4, c=0, s=  386, cout=0
                2802 a=    2, b=    4, c=0, s=    6, cout=0
                2880 a=    5, b=    0, c=0, s=    6, cout=0
                2881 a=    5, b=    0, c=0, s=    5, cout=0
                2960 a=   33, b=    9, c=0, s=    5, cout=0
                2961 a=   33, b=    9, c=0, s=   40, cout=0
                2962 a=   33, b=    9, c=0, s=   42, cout=0
                3040 a=   62, b=    1, c=0, s=   42, cout=0
                3041 a=   62, b=    1, c=0, s=   61, cout=0
                3042 a=   62, b=    1, c=0, s=   63, cout=0
                3120 a=   12, b=    1, c=0, s=   63, cout=0
                3121 a=   12, b=    1, c=0, s=   13, cout=0
                3200 a=   20, b=   91, c=0, s=   13, cout=0
                3201 a=   20, b=   91, c=0, s=   79, cout=0
                3202 a=   20, b=   91, c=0, s=  111, cout=0
                3280 a=  211, b=    5, c=0, s=  111, cout=0
                3281 a=  211, b=    5, c=0, s=  246, cout=0
                3282 a=  211, b=    5, c=0, s=  216, cout=0
                3360 a=  152, b=    4, c=0, s=  216, cout=0
                3361 a=  152, b=    4, c=0, s=  146, cout=0
                3362 a=  152, b=    4, c=0, s=  156, cout=0
                3440 a=  192, b=    3, c=0, s=  156, cout=0
                3441 a=  192, b=    3, c=0, s=  195, cout=0
                3520 a=  102, b=    2, c=0, s=  195, cout=0
                3521 a=  102, b=    2, c=0, s=  100, cout=0
                3522 a=  102, b=    2, c=0, s=  104, cout=0
                3600 a=  107, b=    1, c=0, s=  104, cout=0
                3601 a=  107, b=    1, c=0, s=  102, cout=0
                3602 a=  107, b=    1, c=0, s=  108, cout=0
                3680 a=    2, b=  172, c=0, s=  108, cout=0
                3681 a=    2, b=  172, c=0, s=  168, cout=0
                3682 a=    2, b=  172, c=0, s=  174, cout=0
                3760 a=    6, b=    1, c=0, s=  174, cout=0
                3761 a=    6, b=    1, c=0, s=    7, cout=0
                3840 a=   41, b=   84, c=0, s=    7, cout=0
                3841 a=   41, b=   84, c=0, s=  125, cout=0
                3860 a=   66, b=    2, c=0, s=  125, cout=0
                3861 a=   66, b=    2, c=0, s=   64, cout=0
                3862 a=   66, b=    2, c=0, s=   68, cout=0
                3880 a=  252, b=    6, c=0, s=   68, cout=0
                3881 a=  252, b=    6, c=0, s=  254, cout=0
                3882 a=  252, b=    6, c=0, s=  258, cout=0
                3900 a=  300, b=   80, c=0, s=  258, cout=0
                3901 a=  300, b=   80, c=0, s=  132, cout=0
                3902 a=  300, b=   80, c=0, s=  380, cout=0
                3920 a=0000000100101100, b=0000000001010000, c=0,s=0000000101111100, cout=0

